# vtk DataFile Version 3.0
vtk output
ASCII
DATASET POLYDATA
POINTS  7  double
2.000000  28.000000  0.000000
2.000000 3.000000 0.0000002.000000 -8.000000 0.000000-5.000000 -17.746794 0.000000-8.000000 -27.286186 0.0000009.000000 -17.746794 0.00000012.000000 -27.286186 0.000000
LINES 6 18
2  0  1
2  0  1
2  1  2
2  1  2
2  2  3
2  4  5

CELL_DATA  6
scalars raio double
LOOKUP_TABLE default
0.6500000.4500000.3000000.2000000.3000000.200000scalars modulo_young double
LOOKUP_TABLE default
4800000.00000010000000.00000010000000.00000010000000.00000010000000.00000010000000.000000scalars densidade double
LOOKUP_TABLE default
0.9600001.1340001.1720001.2350001.1720001.235000scalars viscosidade double
LOOKUP_TABLE default
0.0385000.0449000.0472000.0494000.0472000.049400