# vtk DataFile Version 3.0
vtk output
ASCII
DATASET POLYDATA
POINTS  6  float
0.0  35.0  0.0
0.0  15.0  0.0
-5.0  5.0  0.0
5.0 5.0  0.0
3.0  0.0  0.0
7.0 0.0  0.0

LINES  5  15
2  0  1
2  1  2
2  1  3
2  3  4
2  3  5

CELL_DATA  5
scalars raio float
LOOKUP_TABLE default
4
2.828427125
2.828427125
2
2
scalars modulo_young float
LOOKUP_TABLE default
4800000.000000
10000000.00000
10000000.00000
10000000.00000
10000000.00000
scalars densidade float
LOOKUP_TABLE default
0.96
1.134
1.134
1.172
1.172
scalars viscosidade float
LOOKUP_TABLE default
0.0385
0.0449
0.0449
0.0472
0.0472