0.000000 1048490537.490425
6.283184 1048490862.147025
12.566368 1048491836.115761
18.849552 1048493459.393443
25.132736 1048495731.974755
31.415920 1048498653.852252
37.699104 1048502225.016365
43.982288 1048506445.455397
50.265472 1048511315.155525
56.548656 1048516834.100801
62.831840 1048523002.273147
69.115024 1048529819.652364
75.398208 1048537286.216125
81.681392 1048545401.939978
87.964576 1048554166.797344
94.247760 1048563580.759521
100.530944 1048573643.795682
106.814128 1048584355.872877
113.097312 1048595716.956029
119.380496 1048607727.007940
125.663680 1048620385.989287
131.946864 1048633693.858624
138.230048 1048647650.572386
144.513232 1048662256.084880
150.796416 1048677510.348297
157.079600 1048693413.312705
163.362784 1048709964.926051
169.645968 1048727165.134160
175.929152 1048745013.880743
182.212336 1048763511.107386
188.495520 1048782656.753562
