0.000000 113246397.670998
628.318400 127184783.209813
1256.636800 160344665.401654
1884.955200 201251370.211292
2513.273600 244618480.920346
3141.592000 288552810.410433
3769.910400 332454593.438770
4398.228800 376226221.011267
5026.547200 419964501.706959
5654.865600 463832378.536435
6283.184000 508005911.961218
6911.502400 552654217.493864
7539.820800 597933414.368925
8168.139200 643985960.830070
8796.457600 690941531.224052
9424.776000 738917776.154256
10053.094400 788020261.106511
10681.412800 838341258.004189
11309.731200 889957182.710668
11938.049600 942924478.156042
12566.368000 997273708.590220
