0.000000 145606200.749972
628.318400 157191686.675567
1256.636800 186664227.077111
1884.955200 225401931.269629
2513.273600 268127618.626284
3141.592000 312448083.519076
3769.910400 357365432.695130
4398.228800 402504718.945323
5026.547200 447777770.390602
5654.865600 493230053.732402
6283.184000 538966320.268561
6911.502400 585113467.985820
7539.820800 631802012.368617
8168.139200 679156901.380641
8796.457600 727292790.505466
9424.776000 776311136.023621
10053.094400 826297646.659913
10681.412800 877319252.097193
11309.731200 929420061.456955
11938.049600 982615940.988816
12566.368000 1036887423.993731
