%!PS-Adobe-3.0 EPSF-2.0
%%Title: Maple plot
%%Creator: Maple 
%%Pages:  1
%%BoundingBox: 0 0 287 216 
%%DocumentNeededResources: font Helvetica
%%+ font Times-Roman
%%EndComments
20 dict begin
gsave
/drawborder true def
/m {moveto} def
/l {lineto} def
/C {setrgbcolor} def
/Y /setcmykcolor where { %%ifelse Use built-in operator
       /setcmykcolor get
   }{ %%ifelse Emulate setcmykcolor with setrgbcolor
       { %%def
           1 sub 3 { %%repeat
               3 index add neg dup 0 lt { pop 0 } if 3 1 roll
           } repeat setrgbcolor
       } bind
   } ifelse def
/G {setgray} def
/S {stroke} def
/NP {newpath} def
%%%%This draws a filled polygon and avoids bugs/features
%%%%   of some postscript interpreters
%%%%GHOSTSCRIPT: has a bug in reversepath - removing
%%%%the call to reversepath is a sufficient work around
/P {gsave fill grestore reversepath stroke} def
%%%%This function is needed for drawing text.  It takes two arguments: a
%%%%string and a rotation. It outputs width and height.
/stringbbox {
    gsave NP 0 0 m    % Set origin for easy calculations.
    dup rotate exch   % Set orientation, and put string on top.
    false charpath flattenpath
    0 exch sub rotate % Undo rotation.
    pathbbox 4 2 roll pop pop  % Get dimens. of our string.
    1.1 mul cvi exch 1.1 mul cvi exch % Pad some.
    grestore} def
/thin 3 def
/medium 7 def
/thick 16 def
/boundarythick 20 def % thichess of bounding box
%%IncludeResource: font Helvetica
%%IncludeResource: font Times-Roman
0.000000 0.000000 translate
/defaultTitleFont {/Helvetica findfont 474 scalefont setfont} def
/defaultFont {/Helvetica findfont 243 scalefont setfont} def
/userFont1 {/Times-Roman findfont 173 scalefont setfont} def
0.0432 0.0432 scale
1 setlinejoin
1 setlinecap
0.0 setgray
/inch {72 mul} def
/fheight 0.35 inch neg def
    0 G
medium setlinewidth
[] 0 setdash userFont1
% bug patch -- we have a problem
  0.3 G
NP 5941 2237 m 5999 2499 l
S
NP 5883 1980 m 5941 2237 l
S
NP 5829 1750 m 5883 1980 l
S
NP 5775 1532 m 5829 1750 l
S
NP 5719 1320 m 5775 1532 l
S
NP 5663 1130 m 5719 1320 l
S
NP 5610 973 m 5663 1130 l
S
NP 5557 839 m 5610 973 l
S
NP 5498 721 m 5557 839 l
S
NP 5439 637 m 5498 721 l
S
NP 5413 611 m 5439 637 l
S
NP 5387 592 m 5413 611 l
S
NP 5374 586 m 5387 592 l
S
NP 5361 581 m 5374 586 l
S
NP 5349 578 m 5361 581 l
S
NP 5336 576 m 5349 578 l
S
NP 5322 577 m 5336 576 l
S
NP 5308 580 m 5322 577 l
S
NP 5294 584 m 5308 580 l
S
NP 5280 591 m 5294 584 l
S
NP 5252 611 m 5280 591 l
S
NP 5224 639 m 5252 611 l
S
NP 5167 720 m 5224 639 l
S
NP 5110 833 m 5167 720 l
S
NP 5055 972 m 5110 833 l
S
NP 5000 1137 m 5055 972 l
S
NP 4942 1332 m 5000 1137 l
S
NP 4885 1549 m 4942 1332 l
S
NP 4830 1772 m 4885 1549 l
S
NP 4775 2008 m 4830 1772 l
S
NP 4719 2257 m 4775 2008 l
S
NP 4663 2510 m 4719 2257 l
S
NP 4609 2753 m 4663 2510 l
S
NP 4556 2991 m 4609 2753 l
S
NP 4499 3236 m 4556 2991 l
S
NP 4442 3467 m 4499 3236 l
S
NP 4390 3663 m 4442 3467 l
S
NP 4337 3842 m 4390 3663 l
S
NP 4222 4161 m 4337 3842 l
S
NP 4168 4270 m 4222 4161 l
S
NP 4114 4351 m 4168 4270 l
S
NP 4084 4382 m 4114 4351 l
S
NP 4054 4405 m 4084 4382 l
S
NP 4039 4412 m 4054 4405 l
S
NP 4024 4418 m 4039 4412 l
S
NP 4009 4421 m 4024 4418 l
S
NP 3994 4421 m 4009 4421 l
S
NP 3981 4419 m 3994 4421 l
S
NP 3967 4416 m 3981 4419 l
S
NP 3954 4410 m 3967 4416 l
S
NP 3940 4403 m 3954 4410 l
S
NP 3913 4382 m 3940 4403 l
S
NP 3886 4354 m 3913 4382 l
S
NP 3830 4271 m 3886 4354 l
S
NP 3775 4158 m 3830 4271 l
S
NP 3717 4013 m 3775 4158 l
S
NP 3660 3840 m 3717 4013 l
S
NP 3605 3650 m 3660 3840 l
S
NP 3550 3441 m 3605 3650 l
S
NP 3499 3232 m 3550 3441 l
S
NP 3447 3013 m 3499 3232 l
S
NP 3389 2752 m 3447 3013 l
S
NP 3330 2487 m 3389 2752 l
S
NP 3273 2231 m 3330 2487 l
S
NP 3217 1981 m 3273 2231 l
S
NP 3164 1756 m 3217 1981 l
S
NP 3112 1543 m 3164 1756 l
S
NP 3055 1328 m 3112 1543 l
S
NP 2997 1134 m 3055 1328 l
S
NP 2943 971 m 2997 1134 l
S
NP 2888 834 m 2943 971 l
S
NP 2830 719 m 2888 834 l
S
NP 2773 637 m 2830 719 l
S
NP 2747 611 m 2773 637 l
S
NP 2721 592 m 2747 611 l
S
NP 2707 586 m 2721 592 l
S
NP 2694 581 m 2707 586 l
S
NP 2681 578 m 2694 581 l
S
NP 2668 576 m 2681 578 l
S
NP 2653 577 m 2668 576 l
S
NP 2638 580 m 2653 577 l
S
NP 2624 586 m 2638 580 l
S
NP 2609 594 m 2624 586 l
S
NP 2579 616 m 2609 594 l
S
NP 2550 648 m 2579 616 l
S
NP 2499 724 m 2550 648 l
S
NP 2448 825 m 2499 724 l
S
NP 2328 1155 m 2448 825 l
S
NP 2277 1328 m 2328 1155 l
S
NP 2227 1518 m 2277 1328 l
S
NP 2171 1742 m 2227 1518 l
S
NP 2115 1980 m 2171 1742 l
S
NP 2058 2236 m 2115 1980 l
S
NP 2000 2496 m 2058 2236 l
S
NP 1942 2756 m 2000 2496 l
S
NP 1885 3011 m 1942 2756 l
S
NP 1834 3230 m 1885 3011 l
S
NP 1783 3438 m 1834 3230 l
S
NP 1725 3658 m 1783 3438 l
S
NP 1667 3856 m 1725 3658 l
S
NP 1610 4024 m 1667 3856 l
S
NP 1554 4166 m 1610 4024 l
S
NP 1497 4278 m 1554 4166 l
S
NP 1441 4359 m 1497 4278 l
S
NP 1413 4386 m 1441 4359 l
S
NP 1386 4406 m 1413 4386 l
S
NP 1372 4413 m 1386 4406 l
S
NP 1359 4417 m 1372 4413 l
S
NP 1345 4420 m 1359 4417 l
S
NP 1331 4421 m 1345 4420 l
S
NP 1318 4420 m 1331 4421 l
S
NP 1305 4417 m 1318 4420 l
S
NP 1292 4412 m 1305 4417 l
S
NP 1278 4405 m 1292 4412 l
S
NP 1252 4386 m 1278 4405 l
S
NP 1226 4360 m 1252 4386 l
S
NP 1169 4279 m 1226 4360 l
S
NP 1112 4166 m 1169 4279 l
S
NP 1054 4023 m 1112 4166 l
S
NP 997 3851 m 1054 4023 l
S
NP 940 3656 m 997 3851 l
S
NP 883 3441 m 940 3656 l
S
NP 833 3235 m 883 3441 l
S
NP 782 3019 m 833 3235 l
S
NP 724 2761 m 782 3019 l
S
NP 666 2499 m 724 2761 l
S
    0 G
medium setlinewidth
NP 3333 500 m 3333 4500 l
S
thin setlinewidth
NP 3275 576 m 3333 576 l
S
NP 3304 769 m 3333 769 l
S
NP 3304 961 m 3333 961 l
S
NP 3304 1153 m 3333 1153 l
S
NP 3304 1345 m 3333 1345 l
S
NP 3275 1538 m 3333 1538 l
S
NP 3304 1730 m 3333 1730 l
S
NP 3304 1922 m 3333 1922 l
S
NP 3304 2114 m 3333 2114 l
S
NP 3304 2306 m 3333 2306 l
S
NP 3275 2499 m 3333 2499 l
S
NP 3304 2691 m 3333 2691 l
S
NP 3304 2883 m 3333 2883 l
S
NP 3304 3075 m 3333 3075 l
S
NP 3304 3268 m 3333 3268 l
S
NP 3275 3460 m 3333 3460 l
S
NP 3304 3652 m 3333 3652 l
S
NP 3304 3844 m 3333 3844 l
S
NP 3304 4037 m 3333 4037 l
S
NP 3304 4229 m 3333 4229 l
S
NP 3275 4421 m 3333 4421 l
S
medium setlinewidth
NP 666 2499 m 5999 2499 l
S
thin setlinewidth
NP 786 2456 m 786 2499 l
S
NP 956 2477 m 956 2499 l
S
NP 1126 2477 m 1126 2499 l
S
NP 1296 2477 m 1296 2499 l
S
NP 1465 2477 m 1465 2499 l
S
NP 1635 2456 m 1635 2499 l
S
NP 1805 2477 m 1805 2499 l
S
NP 1975 2477 m 1975 2499 l
S
NP 2144 2477 m 2144 2499 l
S
NP 2314 2477 m 2314 2499 l
S
NP 2484 2456 m 2484 2499 l
S
NP 2654 2477 m 2654 2499 l
S
NP 2823 2477 m 2823 2499 l
S
NP 2993 2477 m 2993 2499 l
S
NP 3163 2477 m 3163 2499 l
S
NP 3502 2477 m 3502 2499 l
S
NP 3672 2477 m 3672 2499 l
S
NP 3842 2477 m 3842 2499 l
S
NP 4011 2477 m 4011 2499 l
S
NP 4181 2456 m 4181 2499 l
S
NP 4351 2477 m 4351 2499 l
S
NP 4521 2477 m 4521 2499 l
S
NP 4690 2477 m 4690 2499 l
S
NP 4860 2477 m 4860 2499 l
S
NP 5030 2456 m 5030 2499 l
S
NP 5200 2477 m 5200 2499 l
S
NP 5369 2477 m 5369 2499 l
S
NP 5539 2477 m 5539 2499 l
S
NP 5709 2477 m 5709 2499 l
S
NP 5879 2456 m 5879 2499 l
S
medium setlinewidth
(\2611) dup 0 stringbbox 2 idiv 576 exch sub exch 3251 exch sub exch m show
(\2610.5) dup 0 stringbbox 2 idiv 1538 exch sub exch 3251 exch sub exch m show
(0.5) dup 0 stringbbox 2 idiv 3460 exch sub exch 3251 exch sub exch m show
(1) dup 0 stringbbox 2 idiv 4421 exch sub exch 3251 exch sub exch m show
(\2616) dup 0 stringbbox 2437 exch sub exch 2 idiv 786 exch sub exch m show
(\2614) dup 0 stringbbox 2437 exch sub exch 2 idiv 1635 exch sub exch m show
(\2612) dup 0 stringbbox 2437 exch sub exch 2 idiv 2484 exch sub exch m show
(2) dup 0 stringbbox 2437 exch sub exch 2 idiv 4181 exch sub exch m show
(4) dup 0 stringbbox 2437 exch sub exch 2 idiv 5030 exch sub exch m show
(6) dup 0 stringbbox 2437 exch sub exch 2 idiv 5879 exch sub exch m show
(x) dup 0 stringbbox 2339 exch sub exch 2 idiv 4666 exch sub exch m show
boundarythick setlinewidth
% The following draws a box around the plot,
% if the variable drawborder is true
drawborder { 
/bd boundarythick 2 idiv def
[] 0 setdash 
NP bd bd m bd 5000 bd sub l 
6666 bd sub 5000 bd sub l 
6666 bd sub bd l 
bd bd l S
} if % end of if to draw the border

showpage
grestore
end
%%EOF
