\relax 
\citation{Kouchoukos}
\citation{Lighthill}
\citation{McDonald}
\citation{Barnard}
\citation{Taylor1}
\citation{Taylor2}
\citation{Taylor3}
\citation{Taylor4}
\citation{McDonald}
\citation{Avolio}
\citation{Helal}
\providecommand\tcolorbox@label[2]{}
\@writefile{toc}{\contentsline {section}{\numberline {1}Introdu\c c\~ao}{1}}
\citation{Lighthill}
\citation{Fung}
\citation{Taylor1}
\citation{Fung}
\citation{Karreman}
\citation{Zamir3}
\citation{Zamir1}
\citation{Milnor}
\citation{Zamir2}
\citation{Singhal}
\citation{Strahler1}
\citation{Strahler2}
\citation{Weibel}
\citation{Duan}
\@writefile{toc}{\contentsline {section}{\numberline {2}M\'etodos de An\'alises}{2}}
\newlabel{01_p}{{1}{2}}
\newlabel{02_q}{{2}{2}}
\newlabel{03_p}{{3}{2}}
\newlabel{04_1}{{4}{2}}
\citation{Duan}
\@writefile{lof}{\contentsline {figure}{\numberline {1}{\ignorespaces Nota\c c\~ao usada para identificar cada vaso (k,j) aonde $k$ \'e a gera\c c\~ao/n\IeC {\'\i }vel do vaso e j \'e um n\'umero sequencial dentro daquela gera\c c\~ao. O n\'o adjunto e distal do vaso s\~ao denotados por A e B, respectivamente. O coefficiente de reflex\~ao $R(k,j)$ do segmento $(k,j)$ est\'a associado ao n\'o distal $B$.}}{3}}
\newlabel{fig:arterial-tree}{{1}{3}}
\@writefile{lof}{\contentsline {figure}{\numberline {2}{\ignorespaces Nota\c c\~ao usada para identificar cada vaso $V$, aonde $V|_f = (k-1,s)$, $V|_l = (k+1,2j-1)$ e $V|r = (k+1,2j$.}}{4}}
\newlabel{fig:my-method}{{2}{4}}
\newlabel{05_p}{{5}{4}}
\newlabel{06_q}{{6}{4}}
\newlabel{07_p}{{7}{4}}
\newlabel{08_q}{{8}{4}}
\newlabel{09_p}{{9}{4}}
\newlabel{10_p_f}{{10}{4}}
\citation{Duan}
\newlabel{11_p_b}{{11}{5}}
\newlabel{12_p|_f}{{12}{5}}
\newlabel{13_p_f}{{13}{5}}
\newlabel{14_p_b}{{14}{5}}
\newlabel{15_p_f}{{15}{5}}
\newlabel{16_p_b}{{16}{5}}
\newlabel{17_p_cont}{{17}{5}}
\newlabel{18_barp}{{18}{5}}
\newlabel{19_P}{{19}{5}}
\newlabel{20_barP}{{20}{5}}
\newlabel{21_P}{{21}{5}}
\newlabel{22_beta}{{22}{5}}
\citation{Fung}
\citation{Lighthill}
\newlabel{22_X}{{23}{6}}
\newlabel{23_Q}{{24}{6}}
\newlabel{24_Q}{{25}{6}}
\newlabel{25_M}{{26}{6}}
\newlabel{26_q_0}{{27}{6}}
\newlabel{27_R}{{28}{6}}
\newlabel{28_Ye}{{29}{6}}
\newlabel{29_Ye}{{30}{6}}
\newlabel{30_Ye}{{31}{6}}
\@writefile{toc}{\contentsline {section}{\numberline {3}Ambiente Desenvolvido}{7}}
\@writefile{toc}{\contentsline {subsection}{\numberline {3.1}Interface}{7}}
\@writefile{lof}{\contentsline {figure}{\numberline {3}{\ignorespaces Janela principal}}{7}}
\newlabel{fig:mainwindow}{{3}{7}}
\@writefile{lof}{\contentsline {figure}{\numberline {4}{\ignorespaces Menu File e suas op\c c\~oes}}{8}}
\newlabel{fig:filemenu}{{4}{8}}
\@writefile{lof}{\contentsline {figure}{\numberline {5}{\ignorespaces MenuPlot e suas Op\c c\~oes}}{8}}
\newlabel{fig:plotsmenu}{{5}{8}}
\@writefile{lof}{\contentsline {figure}{\numberline {6}{\ignorespaces Par\^ametros de itera\c c\~ao da janela principal.}}{9}}
\newlabel{fig:mainwindowparam}{{6}{9}}
\@writefile{lof}{\contentsline {figure}{\numberline {7}{\ignorespaces Janela de carregamento de \'arvores arteriais}}{10}}
\newlabel{fig:loadwindow}{{7}{10}}
\@writefile{lof}{\contentsline {figure}{\numberline {8}{\ignorespaces Janela do console ao executar o comando de ajuda.}}{10}}
\newlabel{fig:consolewindow}{{8}{10}}
\@writefile{toc}{\contentsline {subsection}{\numberline {3.2}Algoritmo para Press\~ao e Fluxo}{12}}
\@writefile{lof}{\contentsline {figure}{\numberline {9}{\ignorespaces `}}{13}}
\newlabel{fig:algorithm}{{9}{13}}
\@writefile{lof}{\contentsline {figure}{\numberline {10}{\ignorespaces Diagrama de classes do ambiente desenvolvido}}{15}}
\newlabel{fig:class-diagram-01}{{10}{15}}
\@writefile{toc}{\contentsline {subsection}{\numberline {3.3}Modelo Utilizado}{15}}
\@writefile{toc}{\contentsline {subsubsection}{\numberline {3.3.1}Point}{15}}
\@writefile{lof}{\contentsline {figure}{\numberline {11}{\ignorespaces Diagrama da classe Point}}{16}}
\newlabel{fig:point}{{11}{16}}
\@writefile{lof}{\contentsline {figure}{\numberline {12}{\ignorespaces Diagrama da classe MathHelper}}{16}}
\newlabel{fig:mathhelper}{{12}{16}}
\@writefile{toc}{\contentsline {subsubsection}{\numberline {3.3.2}MathHelper}{16}}
\@writefile{toc}{\contentsline {subsubsection}{\numberline {3.3.3}File Helper}{16}}
\@writefile{toc}{\contentsline {subsubsection}{\numberline {3.3.4}Artery}{16}}
\@writefile{lof}{\contentsline {figure}{\numberline {13}{\ignorespaces Diagrama da classe FileHelper}}{16}}
\newlabel{fig:filehelper}{{13}{16}}
\@writefile{lof}{\contentsline {figure}{\numberline {14}{\ignorespaces Diagrama da classe Artery}}{17}}
\newlabel{fig:artery}{{14}{17}}
\@writefile{toc}{\contentsline {subsubsection}{\numberline {3.3.5}Artery Tree}{18}}
\@writefile{toc}{\contentsline {subsubsection}{\numberline {3.3.6}LineGraphic}{18}}
\@writefile{toc}{\contentsline {subsubsection}{\numberline {3.3.7}MainWindow}{18}}
\@writefile{lof}{\contentsline {figure}{\numberline {15}{\ignorespaces Diagrama da classe Arterytree}}{19}}
\newlabel{fig:arterytree}{{15}{19}}
\@writefile{lof}{\contentsline {figure}{\numberline {16}{\ignorespaces Diagrama da classe LineGraphic}}{20}}
\newlabel{fig:linegraphic}{{16}{20}}
\@writefile{lof}{\contentsline {figure}{\numberline {17}{\ignorespaces Diagrama da classe MainWindow}}{20}}
\newlabel{fig:mainwindow2}{{17}{20}}
\@writefile{lof}{\contentsline {figure}{\numberline {18}{\ignorespaces Diagrama da classe oglMainCanvas}}{21}}
\newlabel{fig:oglmaincanvas}{{18}{21}}
\@writefile{toc}{\contentsline {subsubsection}{\numberline {3.3.8}oglMainCanvas}{21}}
\@writefile{toc}{\contentsline {subsubsection}{\numberline {3.3.9}oglGraphiCanvas}{21}}
\@writefile{lof}{\contentsline {figure}{\numberline {19}{\ignorespaces Diagrama da classe oglGraphiCanvas}}{22}}
\newlabel{fig:oglgraphicanvas}{{19}{22}}
\@writefile{toc}{\contentsline {subsubsection}{\numberline {3.3.10}LoadWindow}{22}}
\@writefile{toc}{\contentsline {subsubsection}{\numberline {3.3.11}ConsoleWindow}{22}}
\citation{Duan}
\citation{Fung}
\@writefile{lof}{\contentsline {figure}{\numberline {20}{\ignorespaces Diagrama da classe LoadWindow}}{23}}
\newlabel{fig:loadwindoww}{{20}{23}}
\@writefile{toc}{\contentsline {subsubsection}{\numberline {3.3.12}MessageWindow}{23}}
\@writefile{toc}{\contentsline {subsection}{\numberline {3.4}Distribui\c c\~ao}{23}}
\@writefile{toc}{\contentsline {section}{\numberline {4}Resultados e Discuss\~ao}{23}}
\citation{Fung}
\citation{Duan}
\citation{Taylor3}
\citation{Taylor3}
\newlabel{31_Y}{{32}{24}}
\newlabel{32_c}{{33}{24}}
\citation{Taylor3}
\newlabel{33_phi}{{34}{25}}
\newlabel{34_alpha}{{35}{25}}
\newlabel{fig:varyingviscphi}{{4}{26}}
\@writefile{lof}{\contentsline {figure}{\numberline {21}{\ignorespaces Amplitude da press\~ao $|P|$ ao longo da \'arvore arterial em diversos casos de estudo.}}{26}}
\@writefile{lof}{\contentsline {figure}{\numberline {22}{\ignorespaces Amplitude da press\~ao $|P|$ ao longo da \'arvore arterial no caso inv\IeC {\'\i }scido e com tubo puramente el\'astico; E no caso com $\mu _x = 1.0$ e $\phi _0 = 8^\circ $ ; Com frequ\^encia variando entre ($3.65$,$7.3$,$10.95$,$14.60$)Hz.}}{27}}
\newlabel{fig:viscphis}{{22}{27}}
\bibcite{Kouchoukos}{1}
\bibcite{Lighthill}{2}
\bibcite{McDonald}{3}
\bibcite{Barnard}{4}
\bibcite{Taylor1}{5}
\bibcite{Taylor2}{6}
\bibcite{Taylor3}{7}
\bibcite{Taylor4}{8}
\bibcite{Avolio}{9}
\bibcite{Helal}{10}
\bibcite{Fung}{11}
\bibcite{Karreman}{12}
\bibcite{Zamir1}{13}
\bibcite{Zamir2}{14}
\bibcite{Zamir3}{15}
\bibcite{Zamir4}{16}
\bibcite{Duan}{17}
\bibcite{Milnor}{18}
\bibcite{Singhal}{19}
\bibcite{Strahler1}{20}
\bibcite{Strahler2}{21}
\bibcite{Weibel}{22}
