0.000000 0.591563
0.015625 0.603960
0.031250 0.617048
0.046875 0.630765
0.062500 0.645052
0.078125 0.659851
0.093750 0.675109
0.109375 0.690773
0.125000 0.706795
0.140625 0.723130
0.156250 0.739734
0.171875 0.756566
0.187500 0.773590
0.203125 0.790769
0.218750 0.808072
0.234375 0.825466
0.250000 0.842923
0.265625 0.860416
0.281250 0.877919
0.296875 0.895408
0.312500 0.912861
0.328125 0.930257
0.343750 0.947575
0.359375 0.964798
0.375000 0.981906
0.390625 0.998884
0.406250 1.015715
0.421875 1.032384
0.437500 1.048877
0.453125 1.065180
0.468750 1.081281
0.484375 1.097166
0.500000 1.112824
0.515625 1.128245
0.531250 1.143416
0.546875 1.158328
0.562500 1.172970
0.578125 1.187334
0.593750 1.201410
0.609375 1.215190
0.625000 1.228665
0.640625 1.241828
0.656250 1.254670
0.671875 1.267184
0.687500 1.279364
0.703125 1.291202
0.718750 1.302692
0.734375 1.313827
0.750000 1.324603
0.765625 1.335012
0.781250 1.345050
0.796875 1.354711
0.812500 1.363990
0.828125 1.372883
0.843750 1.381385
0.859375 1.389491
0.875000 1.397197
0.890625 1.404499
0.906250 1.411395
0.921875 1.417879
0.937500 1.423949
0.953125 1.429601
0.968750 1.434833
0.984375 1.439642
1.000000 1.444025
1.015625 1.448535
1.031250 1.453025
1.046875 1.457494
1.062500 1.461941
1.078125 1.466366
1.093750 1.470767
1.109375 1.475146
1.125000 1.479501
1.140625 1.483831
1.156250 1.488137
1.171875 1.492417
1.187500 1.496672
1.203125 1.500901
1.218750 1.505103
1.234375 1.509278
1.250000 1.513426
1.265625 1.517545
1.281250 1.521637
1.296875 1.525700
1.312500 1.529733
1.328125 1.533737
1.343750 1.537711
1.359375 1.541655
1.375000 1.545568
1.390625 1.549449
1.406250 1.553300
1.421875 1.557118
1.437500 1.560904
1.453125 1.564657
1.468750 1.568377
1.484375 1.572064
1.500000 1.575717
1.515625 1.579336
1.531250 1.582921
1.546875 1.586471
1.562500 1.589985
1.578125 1.593464
1.593750 1.596908
1.609375 1.600315
1.625000 1.603686
1.640625 1.607020
1.656250 1.610317
1.671875 1.613577
1.687500 1.616799
1.703125 1.619984
1.718750 1.623129
1.734375 1.626237
1.750000 1.629305
1.765625 1.632335
1.781250 1.635325
1.796875 1.638276
1.812500 1.641186
1.828125 1.644057
1.843750 1.646887
1.859375 1.649676
1.875000 1.652424
1.890625 1.655131
1.906250 1.657797
1.921875 1.660421
1.937500 1.663003
1.953125 1.665543
1.968750 1.668041
1.984375 1.670496
2.000000 1.672908
2.015625 1.675917
2.031250 1.678878
2.046875 1.681790
2.062500 1.684654
2.078125 1.687470
2.093750 1.690236
2.109375 1.692953
2.125000 1.695619
2.140625 1.698236
2.156250 1.700802
2.171875 1.703317
2.187500 1.705781
2.203125 1.708194
2.218750 1.710555
2.234375 1.712864
2.250000 1.715121
2.265625 1.717325
2.281250 1.719476
2.296875 1.721575
2.312500 1.723619
2.328125 1.725610
2.343750 1.727548
2.359375 1.729431
2.375000 1.731259
2.390625 1.733033
2.406250 1.734752
2.421875 1.736416
2.437500 1.738025
2.453125 1.739578
2.468750 1.741075
2.484375 1.742517
2.500000 1.743902
2.515625 1.745230
2.531250 1.746503
2.546875 1.747718
2.562500 1.748876
2.578125 1.749978
2.593750 1.751022
2.609375 1.752008
2.625000 1.752937
2.640625 1.753808
2.656250 1.754621
2.671875 1.755376
2.687500 1.756072
2.703125 1.756711
2.718750 1.757290
2.734375 1.757811
2.750000 1.758273
2.765625 1.758676
2.781250 1.759020
2.796875 1.759305
2.812500 1.759531
2.828125 1.759697
2.843750 1.759803
2.859375 1.759850
2.875000 1.759837
2.890625 1.759765
2.906250 1.759632
2.921875 1.759440
2.937500 1.759187
2.953125 1.758875
2.968750 1.758502
2.984375 1.758069
3.000000 1.757575
3.015625 1.756541
3.031250 1.755507
3.046875 1.754474
3.062500 1.753441
3.078125 1.752410
3.093750 1.751378
3.109375 1.750348
3.125000 1.749317
3.140625 1.748288
3.156250 1.747259
3.171875 1.746231
3.187500 1.745203
3.203125 1.744176
3.218750 1.743150
3.234375 1.742124
3.250000 1.741099
3.265625 1.740074
3.281250 1.739050
3.296875 1.738026
3.312500 1.737004
3.328125 1.735981
3.343750 1.734960
3.359375 1.733939
3.375000 1.732918
3.390625 1.731898
3.406250 1.730879
3.421875 1.729861
3.437500 1.728843
3.453125 1.727825
3.468750 1.726808
3.484375 1.725792
3.500000 1.724777
3.515625 1.723761
3.531250 1.722747
3.546875 1.721733
3.562500 1.720720
3.578125 1.719707
3.593750 1.718695
3.609375 1.717684
3.625000 1.716673
3.640625 1.715663
3.656250 1.714653
3.671875 1.713644
3.687500 1.712635
3.703125 1.711628
3.718750 1.710620
3.734375 1.709614
3.750000 1.708607
3.765625 1.707602
3.781250 1.706597
3.796875 1.705593
3.812500 1.704589
3.828125 1.703586
3.843750 1.702583
3.859375 1.701581
3.875000 1.700580
3.890625 1.699579
3.906250 1.698579
3.921875 1.697579
3.937500 1.696580
3.953125 1.695582
3.968750 1.694584
3.984375 1.693587
4.000000 1.692590
