0.000000 1.344137
0.015625 1.341159
0.031250 1.332649
0.046875 1.318619
0.062500 1.299132
0.078125 1.274302
0.093750 1.244294
0.109375 1.209328
0.125000 1.169678
0.140625 1.125683
0.156250 1.077744
0.171875 1.026343
0.187500 0.972050
0.203125 0.915543
0.218750 0.857639
0.234375 0.799323
0.250000 0.741807
0.265625 0.686575
0.281250 0.635452
0.296875 0.590621
0.312500 0.554554
0.328125 0.529755
0.343750 0.518271
0.359375 0.521100
0.375000 0.537832
0.390625 0.566783
0.406250 0.605524
0.421875 0.651463
0.437500 0.702212
0.453125 0.755738
0.468750 0.810378
0.484375 0.864781
0.500000 0.917852
0.515625 0.968695
0.531250 1.016568
0.546875 1.060851
0.562500 1.101023
0.578125 1.136647
0.593750 1.167354
0.609375 1.192837
0.625000 1.212847
0.640625 1.227184
0.656250 1.235699
0.671875 1.238287
0.687500 1.234888
0.703125 1.225487
0.718750 1.210110
0.734375 1.188824
0.750000 1.161738
0.765625 1.129004
0.781250 1.090813
0.796875 1.047398
0.812500 0.999038
0.828125 0.946060
0.843750 0.888839
0.859375 0.827817
0.875000 0.763509
0.890625 0.696534
0.906250 0.627658
0.921875 0.557874
0.937500 0.488546
0.953125 0.421672
0.968750 0.360355
0.984375 0.309495
1.000000 0.276166
1.015625 0.100414
1.031250 0.099611
1.046875 0.098854
1.062500 0.098146
1.078125 0.097488
1.093750 0.096883
1.109375 0.096332
1.125000 0.095837
1.140625 0.095400
1.156250 0.095021
1.171875 0.094702
1.187500 0.094444
1.203125 0.094246
1.218750 0.094110
1.234375 0.094034
1.250000 0.094019
1.265625 0.094065
1.281250 0.094170
1.296875 0.094333
1.312500 0.094554
1.328125 0.094829
1.343750 0.095159
1.359375 0.095540
1.375000 0.095971
1.390625 0.096449
1.406250 0.096972
1.421875 0.097537
1.437500 0.098142
1.453125 0.098784
1.468750 0.099460
1.484375 0.100167
1.500000 0.100902
1.515625 0.101663
1.531250 0.102446
1.546875 0.103248
1.562500 0.104067
1.578125 0.104900
1.593750 0.105744
1.609375 0.106596
1.625000 0.107453
1.640625 0.108313
1.656250 0.109172
1.671875 0.110030
1.687500 0.110882
1.703125 0.111727
1.718750 0.112563
1.734375 0.113386
1.750000 0.114196
1.765625 0.114989
1.781250 0.115763
1.796875 0.116518
1.812500 0.117251
1.828125 0.117959
1.843750 0.118643
1.859375 0.119299
1.875000 0.119926
1.890625 0.120523
1.906250 0.121089
1.921875 0.121621
1.937500 0.122120
1.953125 0.122583
1.968750 0.123009
1.984375 0.123398
2.000000 0.123748
2.015625 0.136750
2.031250 0.136953
2.046875 0.137088
2.062500 0.137154
2.078125 0.137149
2.093750 0.137074
2.109375 0.136928
2.125000 0.136709
2.140625 0.136419
2.156250 0.136056
2.171875 0.135620
2.187500 0.135112
2.203125 0.134532
2.218750 0.133879
2.234375 0.133154
2.250000 0.132358
2.265625 0.131490
2.281250 0.130553
2.296875 0.129545
2.312500 0.128468
2.328125 0.127324
2.343750 0.126112
2.359375 0.124835
2.375000 0.123493
2.390625 0.122089
2.406250 0.120623
2.421875 0.119097
2.437500 0.117513
2.453125 0.115872
2.468750 0.114178
2.484375 0.112432
2.500000 0.110636
2.515625 0.108793
2.531250 0.106906
2.546875 0.104978
2.562500 0.103011
2.578125 0.101008
2.593750 0.098974
2.609375 0.096912
2.625000 0.094826
2.640625 0.092721
2.656250 0.090599
2.671875 0.088468
2.687500 0.086331
2.703125 0.084195
2.718750 0.082065
2.734375 0.079948
2.750000 0.077851
2.765625 0.075781
2.781250 0.073747
2.796875 0.071756
2.812500 0.069818
2.828125 0.067944
2.843750 0.066143
2.859375 0.064425
2.875000 0.062804
2.890625 0.061289
2.906250 0.059894
2.921875 0.058629
2.937500 0.057507
2.953125 0.056538
2.968750 0.055733
2.984375 0.055100
3.000000 0.054645
3.015625 0.032891
3.031250 0.032776
3.046875 0.032661
3.062500 0.032546
3.078125 0.032432
3.093750 0.032318
3.109375 0.032204
3.125000 0.032091
3.140625 0.031978
3.156250 0.031866
3.171875 0.031754
3.187500 0.031643
3.203125 0.031532
3.218750 0.031421
3.234375 0.031310
3.250000 0.031200
3.265625 0.031091
3.281250 0.030982
3.296875 0.030873
3.312500 0.030764
3.328125 0.030656
3.343750 0.030549
3.359375 0.030441
3.375000 0.030334
3.390625 0.030228
3.406250 0.030122
3.421875 0.030016
3.437500 0.029911
3.453125 0.029805
3.468750 0.029701
3.484375 0.029596
3.500000 0.029493
3.515625 0.029389
3.531250 0.029286
3.546875 0.029183
3.562500 0.029080
3.578125 0.028978
3.593750 0.028876
3.609375 0.028775
3.625000 0.028674
3.640625 0.028573
3.656250 0.028473
3.671875 0.028373
3.687500 0.028273
3.703125 0.028174
3.718750 0.028075
3.734375 0.027976
3.750000 0.027878
3.765625 0.027780
3.781250 0.027683
3.796875 0.027585
3.812500 0.027489
3.828125 0.027392
3.843750 0.027296
3.859375 0.027200
3.875000 0.027104
3.890625 0.027009
3.906250 0.026914
3.921875 0.026820
3.937500 0.026726
3.953125 0.026632
3.968750 0.026538
3.984375 0.026445
4.000000 0.026352
