0.000000 1.499531
0.015625 1.500237
0.031250 1.493699
0.046875 1.479942
0.062500 1.459041
0.078125 1.431125
0.093750 1.396373
0.109375 1.355021
0.125000 1.307358
0.140625 1.253736
0.156250 1.194568
0.171875 1.130343
0.187500 1.061637
0.203125 0.989131
0.218750 0.913650
0.234375 0.836210
0.250000 0.758106
0.265625 0.681046
0.281250 0.607359
0.296875 0.540281
0.312500 0.484237
0.328125 0.444761
0.343750 0.427341
0.359375 0.434945
0.375000 0.466136
0.390625 0.516012
0.406250 0.578806
0.421875 0.649598
0.437500 0.724716
0.453125 0.801516
0.468750 0.878082
0.484375 0.952980
0.500000 1.025100
0.515625 1.093555
0.531250 1.157614
0.546875 1.216666
0.562500 1.270193
0.578125 1.317754
0.593750 1.358975
0.609375 1.393542
0.625000 1.421198
0.640625 1.441738
0.656250 1.455008
0.671875 1.460904
0.687500 1.459371
0.703125 1.450402
0.718750 1.434036
0.734375 1.410363
0.750000 1.379517
0.765625 1.341681
0.781250 1.297084
0.796875 1.246004
0.812500 1.188771
0.828125 1.125765
0.843750 1.057428
0.859375 0.984269
0.875000 0.906879
0.890625 0.825962
0.906250 0.742383
0.921875 0.657254
0.937500 0.572103
0.953125 0.489199
0.968750 0.412176
0.984375 0.347107
1.000000 0.303528
1.015625 0.069526
1.031250 0.068869
1.046875 0.068258
1.062500 0.067695
1.078125 0.067183
1.093750 0.066724
1.109375 0.066320
1.125000 0.065972
1.140625 0.065682
1.156250 0.065451
1.171875 0.065281
1.187500 0.065171
1.203125 0.065122
1.218750 0.065134
1.234375 0.065207
1.250000 0.065340
1.265625 0.065532
1.281250 0.065782
1.296875 0.066088
1.312500 0.066449
1.328125 0.066862
1.343750 0.067326
1.359375 0.067837
1.375000 0.068394
1.390625 0.068993
1.406250 0.069632
1.421875 0.070308
1.437500 0.071019
1.453125 0.071760
1.468750 0.072530
1.484375 0.073324
1.500000 0.074141
1.515625 0.074978
1.531250 0.075830
1.546875 0.076697
1.562500 0.077574
1.578125 0.078460
1.593750 0.079351
1.609375 0.080245
1.625000 0.081140
1.640625 0.082034
1.656250 0.082923
1.671875 0.083806
1.687500 0.084680
1.703125 0.085545
1.718750 0.086397
1.734375 0.087234
1.750000 0.088056
1.765625 0.088860
1.781250 0.089645
1.796875 0.090409
1.812500 0.091150
1.828125 0.091868
1.843750 0.092561
1.859375 0.093227
1.875000 0.093865
1.890625 0.094475
1.906250 0.095054
1.921875 0.095603
1.937500 0.096120
1.953125 0.096604
1.968750 0.097055
1.984375 0.097471
2.000000 0.097852
2.015625 0.126011
2.031250 0.126322
2.046875 0.126564
2.062500 0.126736
2.078125 0.126838
2.093750 0.126869
2.109375 0.126829
2.125000 0.126717
2.140625 0.126533
2.156250 0.126277
2.171875 0.125948
2.187500 0.125548
2.203125 0.125076
2.218750 0.124533
2.234375 0.123918
2.250000 0.123233
2.265625 0.122477
2.281250 0.121652
2.296875 0.120758
2.312500 0.119796
2.328125 0.118768
2.343750 0.117674
2.359375 0.116515
2.375000 0.115293
2.390625 0.114009
2.406250 0.112665
2.421875 0.111263
2.437500 0.109804
2.453125 0.108290
2.468750 0.106723
2.484375 0.105105
2.500000 0.103439
2.515625 0.101728
2.531250 0.099973
2.546875 0.098178
2.562500 0.096346
2.578125 0.094480
2.593750 0.092584
2.609375 0.090661
2.625000 0.088715
2.640625 0.086750
2.656250 0.084772
2.671875 0.082784
2.687500 0.080792
2.703125 0.078802
2.718750 0.076820
2.734375 0.074851
2.750000 0.072904
2.765625 0.070985
2.781250 0.069103
2.796875 0.067266
2.812500 0.065484
2.828125 0.063765
2.843750 0.062120
2.859375 0.060560
2.875000 0.059097
2.890625 0.057740
2.906250 0.056502
2.921875 0.055394
2.937500 0.054427
2.953125 0.053611
2.968750 0.052954
2.984375 0.052464
3.000000 0.052147
3.015625 0.029452
3.031250 0.029373
3.046875 0.029295
3.062500 0.029217
3.078125 0.029139
3.093750 0.029061
3.109375 0.028984
3.125000 0.028907
3.140625 0.028830
3.156250 0.028753
3.171875 0.028677
3.187500 0.028600
3.203125 0.028524
3.218750 0.028448
3.234375 0.028372
3.250000 0.028297
3.265625 0.028221
3.281250 0.028146
3.296875 0.028071
3.312500 0.027996
3.328125 0.027922
3.343750 0.027848
3.359375 0.027773
3.375000 0.027699
3.390625 0.027626
3.406250 0.027552
3.421875 0.027479
3.437500 0.027406
3.453125 0.027333
3.468750 0.027260
3.484375 0.027187
3.500000 0.027115
3.515625 0.027043
3.531250 0.026971
3.546875 0.026899
3.562500 0.026827
3.578125 0.026756
3.593750 0.026684
3.609375 0.026613
3.625000 0.026542
3.640625 0.026472
3.656250 0.026401
3.671875 0.026331
3.687500 0.026261
3.703125 0.026191
3.718750 0.026121
3.734375 0.026052
3.750000 0.025982
3.765625 0.025913
3.781250 0.025844
3.796875 0.025775
3.812500 0.025706
3.828125 0.025638
3.843750 0.025570
3.859375 0.025502
3.875000 0.025434
3.890625 0.025366
3.906250 0.025298
3.921875 0.025231
3.937500 0.025164
3.953125 0.025097
3.968750 0.025030
3.984375 0.024963
4.000000 0.024897
