# vtk DataFile Version 3.0
vtk output
ASCII
DATASET POLYDATA
POINTS  10  float
0.0000000  0.0500000  0.0000000
0.0123338  -0.0257925  0.0000000
-0.0039452  0.0286467  0.0000000
-0.0385329  0.0018087  0.0000000
-0.0007890  0.0457293  0.0000000
0.0412504  0.0245110  0.0000000
-0.0041484  -0.0108618  0.0000000
-0.0228941  -0.0335734  0.0000000
0.0252766  0.0250728  0.0000000
0.0482618  -0.0102803  0.0000000

LINES  9  27
2  0  4
2  4  8
2  8  9
2  8  5
2  4  2
2  2  3
2  2  6
2  6  1
2  6  7

CELL_DATA  9
scalars raio float
LOOKUP_TABLE default
1.1380940
0.8173081
0.7167514
0.5622455
0.9754592
0.6460031
0.8700338
0.6654837
0.7139107
scalars visc float
LOOKUP_TABLE default
3.6038533
3.6042984
3.6036665
3.5998328
3.6042865
3.6025494
3.6043808
3.6029368
3.6036353
scalars WSS float
LOOKUP_TABLE default
25.9291274
28.0077718
20.7598433
42.9624974
24.7114588
28.3459712
23.2186809
25.9316121
21.0084649
scalars fluxo float
LOOKUP_TABLE default
500.0000000
200.0000000
100.0000000
100.0000000
300.0000000
100.0000000
200.0000000
100.0000000
100.0000000

POINT_DATA  10
scalars pressao float
LOOKUP_TABLE default
100.0000001
63.0075189
91.8943556
63.0075189
98.5121092
63.0075189
76.0389662
63.0075189
81.3737128
63.0075189
