# vtk DataFile Version 3.0
vtk output
ASCII
DATASET POLYDATA
POINTS  64  float
0.0000000  0.0000000  0.0287941
-0.0003651  0.0180983  -0.0191554
-0.0065034  0.0001095  0.0078678
-0.0229133  -0.0151218  -0.0048432
-0.0004543  -0.0018630  0.0137163
0.0167299  -0.0136436  -0.0146309
-0.0001363  -0.0005589  0.0242708
-0.0157012  0.0222970  0.0087437
-0.0053723  0.0031391  -0.0081955
-0.0077253  -0.0044894  -0.0263384
-0.0003589  -0.0014718  0.0168826
0.0150053  0.0198983  -0.0028539
-0.0002031  -0.0008328  0.0220543
-0.0085067  -0.0197577  0.0175315
-0.0002498  -0.0010245  0.0205028
0.0172991  -0.0153499  0.0150216
0.0117956  -0.0034608  -0.0033544
0.0236561  0.0058943  -0.0148538
0.0034118  -0.0044892  0.0045646
-0.0034643  -0.0166273  -0.0089763
0.0023239  -0.0105975  0.0003036
0.0089020  -0.0247103  0.0002435
-0.0018999  0.0116821  0.0179056
0.0069064  0.0235682  0.0148471
-0.0052136  -0.0065650  0.0201671
-0.0199784  -0.0052792  0.0172966
-0.0076565  0.0027602  0.0006346
-0.0175674  0.0114688  -0.0036399
-0.0125980  0.0112078  -0.0030589
-0.0139779  0.0229775  -0.0076712
0.0139497  -0.0094222  0.0141068
0.0253929  -0.0105516  0.0054903
-0.0099125  0.0004013  -0.0156086
-0.0195703  -0.0001002  -0.0191199
-0.0149989  -0.0033301  0.0023374
-0.0227789  0.0008808  -0.0009883
0.0059879  0.0137056  0.0026865
0.0003594  0.0222044  -0.0056230
-0.0033231  0.0078044  -0.0162022
-0.0023454  0.0069786  -0.0273965
0.0191036  0.0003928  -0.0050143
0.0277296  0.0022832  0.0005740
-0.0067754  -0.0129237  0.0154797
-0.0079689  -0.0179668  0.0056854
0.0125691  -0.0062120  -0.0096486
0.0078046  -0.0034745  -0.0265650
-0.0101117  -0.0027281  -0.0191378
-0.0155537  -0.0125195  -0.0201238
0.0052669  -0.0064377  0.0172545
0.0036563  -0.0186960  0.0132903
0.0045833  0.0187977  0.0011718
0.0057961  0.0246071  0.0043994
0.0058878  0.0094754  0.0072127
0.0175130  0.0127604  0.0076383
-0.0102304  -0.0003047  0.0066448
-0.0167406  0.0037845  0.0097978
0.0048483  -0.0175436  -0.0030765
0.0057013  -0.0233082  -0.0117166
0.0001724  -0.0134434  -0.0061469
0.0014264  -0.0158511  -0.0225720
0.0194131  0.0052399  -0.0097892
0.0163067  0.0129884  -0.0136335
0.0038667  0.0035291  0.0136199
0.0142073  0.0068807  0.0177521

LINES  63  189
2  0  6
2  6  22
2  22  23
2  22  7
2  6  12
2  12  14
2  14  48
2  48  49
2  48  30
2  30  31
2  30  15
2  14  10
2  10  4
2  4  18
2  18  20
2  20  56
2  56  57
2  56  21
2  20  58
2  58  19
2  58  59
2  18  16
2  16  40
2  40  41
2  40  60
2  60  17
2  60  61
2  16  44
2  44  5
2  44  45
2  4  2
2  2  54
2  54  55
2  54  34
2  34  35
2  34  3
2  2  26
2  26  8
2  8  38
2  38  39
2  38  1
2  8  32
2  32  46
2  46  47
2  46  9
2  32  33
2  26  28
2  28  27
2  28  29
2  10  62
2  62  52
2  52  36
2  36  11
2  36  50
2  50  37
2  50  51
2  52  53
2  62  63
2  12  24
2  24  42
2  42  43
2  42  13
2  24  25

CELL_DATA  63
scalars raio float
LOOKUP_TABLE default
1.1836682
0.4685898
0.3592481
0.3837826
1.1586646
1.1268250
0.5099101
0.3335873
0.4570241
0.3928105
0.3266337
1.0908856
1.0200813
0.7990636
0.5939995
0.4695801
0.3800215
0.3650914
0.4733205
0.3190906
0.4189802
0.6698940
0.5619605
0.3738742
0.5002746
0.3803117
0.4125185
0.4975255
0.3638983
0.4216510
0.8199452
0.5104519
0.3068585
0.4704319
0.3476323
0.3959992
0.7478478
0.6837248
0.5044897
0.4011153
0.3997097
0.5761273
0.5132722
0.4251883
0.3878714
0.3826068
0.4620236
0.3199624
0.4038581
0.6186079
0.5886335
0.5443019
0.3783806
0.4748699
0.3884096
0.3646506
0.3495176
0.3200095
0.4996564
0.4375726
0.3641931
0.3285847
0.3447110
