\relax 
\citation{Kouchoukos}
\citation{Lighthill}
\citation{McDonald}
\citation{Barnard}
\citation{Taylor1}
\citation{Taylor2}
\citation{Taylor3}
\citation{Taylor4}
\citation{McDonald}
\citation{Avolio}
\citation{Helal}
\@writefile{toc}{\contentsline {section}{\numberline {1.}INTRODU\IeC {\c C}\IeC {\~A}O}{1}}
\citation{Lighthill}
\citation{Fung}
\citation{Taylor1}
\citation{Fung}
\citation{Karreman}
\citation{Zamir3}
\citation{Zamir1}
\citation{Duan}
\@writefile{toc}{\contentsline {section}{\numberline {2.}METODOLOGIA}{2}}
\newlabel{01_p}{{1}{2}}
\newlabel{02_q}{{2}{2}}
\newlabel{03_p}{{3}{2}}
\newlabel{04_1}{{4}{2}}
\citation{Duan}
\@writefile{lof}{\contentsline {figure}{\numberline {1}{\ignorespaces Nota\IeC {\c c}\IeC {\~a}o usada para identificar cada vaso (k,j) aonde $k$ \IeC {\'e} a gera\IeC {\c c}\IeC {\~a}o/n\IeC {\'\i }vel do vaso e j \IeC {\'e} um n\IeC {\'u}mero sequencial dentro daquela gera\IeC {\c c}\IeC {\~a}o. O n\IeC {\'o} adjunto e distal do vaso s\IeC {\~a}o denotados por A e B, respectivamente. O coeficiente de reflex\IeC {\~a}o $R(k,j)$ do segmento $(k,j)$ est\IeC {\'a} associado ao n\IeC {\'o} distal $B$.}}{3}}
\newlabel{fig:arterial-tree}{{1}{3}}
\@writefile{lof}{\contentsline {figure}{\numberline {2}{\ignorespaces Nota\IeC {\c c}\IeC {\~a}o usada para identificar cada vaso $V$, aonde $V|_f = (k-1,s)$, $V|_l = (k+1,2j-1)$ e $V|r = (k+1,2j$).}}{3}}
\newlabel{fig:my-method}{{2}{3}}
\newlabel{05_p}{{5}{4}}
\newlabel{06_q}{{6}{4}}
\newlabel{07_p}{{7}{4}}
\newlabel{08_q}{{8}{4}}
\newlabel{09_p}{{9}{4}}
\newlabel{10_p_f}{{10}{4}}
\newlabel{11_p_b}{{11}{4}}
\newlabel{12_p|_f}{{12}{4}}
\newlabel{13_p_f}{{13}{5}}
\newlabel{14_p_b}{{14}{5}}
\newlabel{15_p_f}{{15}{5}}
\newlabel{16_p_b}{{16}{5}}
\newlabel{17_p_cont}{{17}{5}}
\newlabel{18_barp}{{18}{5}}
\newlabel{18_barp0}{{19}{5}}
\newlabel{19_P}{{20}{5}}
\newlabel{20_barP}{{21}{5}}
\newlabel{21_P}{{22}{5}}
\newlabel{22_beta}{{23}{5}}
\citation{Fung}
\citation{Lighthill}
\newlabel{22_X}{{24}{6}}
\newlabel{23_Q}{{25}{6}}
\newlabel{24_Q}{{26}{6}}
\newlabel{25_M}{{27}{6}}
\newlabel{26_q_0}{{28}{6}}
\newlabel{27_R}{{29}{6}}
\newlabel{28_Ye}{{30}{6}}
\newlabel{29_Ye}{{31}{6}}
\citation{Duan}
\citation{Fung}
\newlabel{30_Ye}{{32}{7}}
\@writefile{toc}{\contentsline {section}{\numberline {3.}RESULTADOS}{7}}
\@writefile{lot}{\contentsline {table}{\numberline {1}{\ignorespaces Par\IeC {\^a}metros de entrada}}{7}}
\newlabel{31_Y}{{33}{7}}
\citation{Duan}
\citation{Taylor3}
\citation{Taylor3}
\newlabel{32_c}{{34}{8}}
\newlabel{33_phi}{{35}{8}}
\newlabel{34_alpha}{{36}{8}}
\@writefile{toc}{\contentsline {section}{\numberline {4.}CONCLUS\IeC {\~A}O}{8}}
\newlabel{fig:varyingviscphi}{{3.}{9}}
\@writefile{lof}{\contentsline {figure}{\numberline {3}{\ignorespaces Amplitude da press\IeC {\~a}o $|P|$ ao longo da \IeC {\'a}rvore arterial em diversos casos de estudo.}}{9}}
\citation{Duan}
\bibcite{Kouchoukos}{{1}{1970}{{Kouchoukos}}{{}}}
\bibcite{Lighthill}{{2}{1975}{{Lighthill}}{{}}}
\bibcite{McDonald}{{3}{1974}{{McDonald}}{{}}}
\bibcite{Barnard}{{4}{1966}{{Barnard \& Hunt \& Varley}}{{}}}
\bibcite{Taylor1}{{5}{1957}{{Taylor}}{{}}}
\bibcite{Taylor2}{{6}{1957}{{Taylor}}{{}}}
\bibcite{Taylor3}{{7}{1966}{{Taylor}}{{}}}
\bibcite{Taylor4}{{8}{1966}{{Taylor}}{{}}}
\bibcite{Avolio}{{9}{1980}{{Avolio}}{{}}}
\bibcite{Helal}{{10}{1990}{{Helal}}{{}}}
\bibcite{Fung}{{11}{1984}{{Fung}}{{}}}
\bibcite{Karreman}{{12}{1952}{{Karreman}}{{}}}
\bibcite{Zamir1}{{13}{1976}{{Zamir}}{{}}}
\bibcite{Zamir2}{{14}{1988}{{Zamir}}{{}}}
\bibcite{Zamir3}{{15}{1988}{{Zamir}}{{}}}
\bibcite{Zamir4}{{16}{1992}{{Zamir}}{{}}}
\bibcite{Duan}{{17}{1995}{{Duan \& Zamir}}{{}}}
